<svg version="1.1"
	 id="Layer_1" xmlns:v="http://schemas.microsoft.com/visio/2003/SVGExtensions/" xmlns:ev="http://www.w3.org/2001/xml-events"
	 xmlns="http://www.w3.org/2000/svg" xmlns:xlink="http://www.w3.org/1999/xlink" x="0px" y="0px" width="160.32px"
	 height="66.38px" viewBox="18.237 18.238 160.32 66.38" enable-background="new 18.237 18.238 160.32 66.38" xml:space="preserve">
	 
	 <defs>
	 		<linearGradient id="anim"  x1="0%" y1="100%">
      <stop offset="0%" stop-color="red" stop-opacity="1">
      		<animate attributeName="stop-color" 
      			values="red;rgba(255,0,0,0.3);red" dur="50ms" repeatCount="indefinite"/>
		</stop>
    </linearGradient>
    
    <filter id="shadow" >
    	<feGaussianBlur in="SourceAlpha" stdDeviation="4"></feGaussianBlur>
    	<feOffset dx="-2" dy="4" result="offsetblur"></feOffset>
    	<feFlood flood-color="#9afc8a"></feFlood>
    	<feComposite in2="offsetblur" operator="in"></feComposite>
    	
    	<feMerge>
    		<feMergeNode></feMergeNode>
    		<feMergeNode in="SourceGraphic"></feMergeNode>
    	</feMerge>
    </filter>
        </defs>
		<g transform="translate(96.3495,-36.9029)">
			<g>
				<path fill="url(#anim)"   d="M81.208,68.171c0.55,0,1,0.45,1,1v37.18c0,0.55-0.45,1-1,1h-50.44c-0.55,0-1,0.45-1,1v3.66
					c0,0.55-0.45,1-1,1h-12.18c-0.55,0-1,0.45-1,1v2.261c0,0.55-0.45,1-1,1h-2.25c-0.55,0-1,0.45-1,1v2.25c0,0.55-0.45,1-1,1h-17.21
					c-0.55,0-1-0.45-1-1v-12.171c0-0.55-0.45-1-1-1h-68.24c-0.55,0-1-0.45-1-1v-37.18c0-0.55,0.45-1,1-1h76.11c0.55,0,1-0.45,1-1
					v-11.03c0-0.55,0.45-1,1-1h32.02c0.55,0,1,0.45,1,1v11.03c0,0.55,0.45,1,1,1H81.208z" >
					
        </path>
			</g>
		</g>
</svg>
